TargetTitle	Length	ratio	Source place	Target place	Analysis text	Target text
025 騶虞-唐-孔穎達	6	0.6666666666666666	79	199	二句是也眾妾	二句是也言王
005 螽斯-唐-孔穎達	6	0.8333333333333334	20	204	無妒忌之行能	無妒忌之行樛
069 中谷有蓷-唐-孔穎達	6	0.6666666666666666	79	81	二句是也眾妾	二句是也凶年
032 凱風-唐-孔穎達	6	0.8333333333333334	76	129	二章上二句是	二章上二句皆
068 揚之水-唐-孔穎達	6	0.6666666666666666	79	8	二句是也眾妾	二句是也屯戍
068 揚之水-唐-孔穎達	6	0.6666666666666666	79	17	二句是也眾妾	二句是也思者
068 揚之水-唐-孔穎達	6	0.6666666666666666	79	24	二句是也眾妾	二句是也此三
012 鵲巢-唐-孔穎達	6	0.8333333333333334	3	3	詩者言夫人以	詩者言夫人之
041 北風-唐-孔穎達	6	0.8333333333333334	76	47	二章上二句是	二章上二句皆
041 北風-唐-孔穎達	6	0.6666666666666666	77	60	章上二句是也	章上二句乃君
004 樛木-唐-孔穎達	6	0.6666666666666666	79	55	二句是也眾妾	二句是也既能
004 樛木-唐-孔穎達	9	0.5555555555555556	100	56	句是也既荷恩惠故能	句是也既能逮下則樂
044 二子乘舟-唐-孔穎達	6	0.6666666666666666	79	52	二句是也眾妾	二句是也國人
021 小星-前漢-毛	27	0.6415094339622641	18	6	夫人無妒忌之行能以恩惠及賤妾令得進禦於君故賤妾亦自知其	夫人無妒忌之行惠及賤妾進禦於君知其命有貴賤能盡其心矣
021 小星-前漢-毛	6	0.7272727272727273	54	27	能盡其心以事	能盡其心矣
021 小星-前漢-毛	9	0.8888888888888888	66	13	惠及賤妾使進禦於君	惠及賤妾進禦於君知