TargetTitle	Length	ratio	Source place	Target place	Analysis text	Target text
012 鵲巢-唐-孔穎達	6	0.6666666666666666	47	65	經三章皆惡無	經三章皆言起
073 大車-唐-孔穎達	6	0.6666666666666666	47	0	經三章皆惡無	經三章皆陳古
042 靜女-唐-孔穎達	9	0.5555555555555556	47	8	經三章皆惡無禮之辭	經三章皆是陳靜女之
040 北門-唐-孔穎達	17	0.5294117647058824	47	27	經三章皆惡無禮之辭也經言吉士誘之女	經三章皆不得志之事也言士者有德行之
025 騶虞-前漢-毛	6	0.8333333333333334	30	23	被文王之化雖	被文王之化則
023 野有死麕-前漢-毛	10	0.7	1	0	野有死麕詩者言惡無禮	野有死麕惡無禮也天下
023 野有死麕-前漢-毛	27	0.8301886792452831	16	8	天下大亂強暴相陵遂成淫風之俗被文王之化雖當亂世其貞女猶	天下大亂強暴相陵遂成淫風被文王之化雖當亂世猶惡無禮也
023 野有死麕-前漢-毛	6	0.6666666666666666	143	8	天下大亂以下	天下大亂強暴
010 汝墳-前漢-毛	6	0.6666666666666666	31	6	文王之化雖當	文王之化行乎
020 摽有梅-前漢-毛	6	0.8333333333333334	30	12	被文王之化雖	被文王之化男
023 野有死麕-後漢-鄭玄	6	0.6666666666666666	71	4	不由媒妁也思	不由媒妁雁幣
023 野有死麕-後漢-鄭玄	6	0.6666666666666666	84	8	雁幣不至也欲	雁幣不至劫脅
023 野有死麕-後漢-鄭玄	6	0.8333333333333334	98	12	劫脅以成昏也	劫脅以成昏謂
010 汝墳-後漢-鄭玄	10	0.6	30	4	被文王之化雖當亂世其	被文王之化厚事其君子