TargetTitle	Length	ratio	Source place	Target place	Analysis text	Target text
031 擊鼓-唐-孔穎達	9	0.6666666666666666	170	480	於諸侯者以諸侯之女	於諸侯者杜預云諸侯
018 羔羊-唐-孔穎達	6	0.6666666666666666	1091	504	卿大夫之妻得	卿大夫之服故
018 羔羊-唐-孔穎達	6	0.6666666666666666	1246	504	卿大夫之妻用	卿大夫之服故
019 殷其靁-唐-孔穎達	6	0.6666666666666666	1092	7	大夫之妻得上	大夫之妻勸夫
019 殷其靁-唐-孔穎達	6	0.6666666666666666	1247	7	大夫之妻用助	大夫之妻勸夫
047 君子偕老-唐-孔穎達	6	0.6666666666666666	509	303	從夫之爵不得	從夫之爵故同
021 小星-唐-孔穎達	8	0.625	520	263	也何休云天子嫁女	也何休云夫人無子
012 鵲巢-唐-孔穎達	6	0.6666666666666666	453	82	未為諸侯若為	未為諸侯而言
039 泉水-唐-孔穎達	6	0.6666666666666666	23	25	嫁於諸侯其所	嫁於諸侯必為
039 泉水-唐-孔穎達	6	0.6666666666666666	169	25	嫁於諸侯者以	嫁於諸侯必為
039 泉水-唐-孔穎達	6	0.6666666666666666	179	25	嫁於諸侯是其	嫁於諸侯必為
039 泉水-唐-孔穎達	9	0.5555555555555556	195	25	嫁於諸侯亦謂諸侯主	嫁於諸侯必為夫人亦
039 泉水-唐-孔穎達	6	0.6666666666666666	214	25	嫁於諸侯言雖	嫁於諸侯必為
039 泉水-唐-孔穎達	6	0.6666666666666666	240	25	嫁於諸侯雖嫁	嫁於諸侯必為
065 黍離-後漢-鄭玄	6	0.6666666666666666	24	35	於諸侯其所乘	於諸侯其詩不
024 何彼襛矣-前漢-毛	40	0.6	1	0	何彼襛矣詩者美王姬也以其雖則王姬天子之女亦下嫁於諸侯其所乘之車所衣之服皆不係其夫	何彼襛矣美王姬也雖則王姬亦下嫁於諸侯車服不係其夫下王後一等猶執婦道以成肅雝之德也
024 何彼襛矣-前漢-毛	6	0.8333333333333334	44	24	下王後一等而	下王後一等猶
024 何彼襛矣-前漢-毛	10	0.7368421052631579	59	31	婦道以成肅敬雍和之德	婦道以成肅雝之德也
024 何彼襛矣-前漢-毛	10	1.0	163	8	雖則王姬亦下嫁於諸侯	雖則王姬亦下嫁於諸侯
024 何彼襛矣-前漢-毛	9	0.5555555555555556	179	14	嫁於諸侯是其常令雖	嫁於諸侯車服不係其
024 何彼襛矣-前漢-毛	6	1.0	193	12	亦下嫁於諸侯	亦下嫁於諸侯
024 何彼襛矣-前漢-毛	6	0.6666666666666666	214	14	嫁於諸侯言雖	嫁於諸侯車服
024 何彼襛矣-前漢-毛	6	0.8333333333333334	239	13	下嫁於諸侯雖	下嫁於諸侯車
024 何彼襛矣-前漢-毛	6	0.8333333333333334	416	24	下王後一等不	下王後一等猶
024 何彼襛矣-前漢-毛	6	0.8333333333333334	468	24	下王後一等要	下王後一等猶
024 何彼襛矣-前漢-毛	6	0.8333333333333334	495	24	下王後一等若	下王後一等猶
024 何彼襛矣-前漢-毛	6	0.8333333333333334	624	24	下王後一等故	下王後一等猶
012 鵲巢-後漢-鄭玄	6	0.6666666666666666	23	7	嫁於諸侯其所	嫁於諸侯也夫
012 鵲巢-後漢-鄭玄	6	0.6666666666666666	169	7	嫁於諸侯者以	嫁於諸侯也夫
012 鵲巢-後漢-鄭玄	6	0.6666666666666666	179	7	嫁於諸侯是其	嫁於諸侯也夫
012 鵲巢-後漢-鄭玄	6	0.6666666666666666	195	7	嫁於諸侯亦謂	嫁於諸侯也夫
012 鵲巢-後漢-鄭玄	6	0.6666666666666666	214	7	嫁於諸侯言雖	嫁於諸侯也夫
012 鵲巢-後漢-鄭玄	6	0.6666666666666666	240	7	嫁於諸侯雖嫁	嫁於諸侯也夫
012 鵲巢-後漢-鄭玄	6	0.6666666666666666	394	8	於諸侯也然得	於諸侯也夫人
039 泉水-前漢-毛	6	0.6666666666666666	23	7	嫁於諸侯其所	嫁於諸侯父母
039 泉水-前漢-毛	6	0.6666666666666666	169	7	嫁於諸侯者以	嫁於諸侯父母
039 泉水-前漢-毛	6	0.6666666666666666	179	7	嫁於諸侯是其	嫁於諸侯父母
039 泉水-前漢-毛	6	0.6666666666666666	195	7	嫁於諸侯亦謂	嫁於諸侯父母
039 泉水-前漢-毛	6	0.6666666666666666	214	7	嫁於諸侯言雖	嫁於諸侯父母
039 泉水-前漢-毛	6	0.6666666666666666	240	7	嫁於諸侯雖嫁	嫁於諸侯父母
024 何彼襛矣-後漢-鄭玄	12	0.6666666666666666	631	6	車乘厭翟服則褕翟也巾車職	車乘厭翟勒麵繢總服則褕翟
024 何彼襛矣-後漢-鄭玄	6	0.8333333333333334	655	8	厭翟勒麵繢糸	厭翟勒麵繢總