TargetTitle	Length	ratio	Source place	Target place	Analysis text	Target text
054 載馳-前漢-毛	6	0.6666666666666666	48	23	為狄人所逐以	為狄人所滅國
036 式微-後漢-鄭玄	6	0.8333333333333334	48	5	為狄人所逐以	為狄人所逐棄
036 式微-後漢-鄭玄	18	0.6666666666666666	61	18	處之以二邑勸之云胡不歸知可以歸而不歸	處之以二邑因安之可以歸而不歸故其臣勸
036 式微-前漢-毛	6	0.7272727272727273	5	8	臣勸以歸之辭	臣勸以歸也