TargetTitle	Length	ratio	Source place	Target place	Analysis text	Target text
024 何彼襛矣-前漢-毛	6	0.6666666666666666	25	14	嫁於諸侯必為	嫁於諸侯車服
039 泉水-後漢-鄭玄	9	0.8888888888888888	64	30	思歸雖非禮而思之至	思歸雖非禮思之至也
012 鵲巢-後漢-鄭玄	8	0.75	25	7	嫁於諸侯必為夫人	嫁於諸侯也夫人有
039 泉水-前漢-毛	6	0.6666666666666666	25	7	嫁於諸侯必為	嫁於諸侯父母
039 泉水-前漢-毛	6	0.6666666666666666	62	2	衛女思歸雖非	衛女思歸也嫁
059 竹竿-前漢-毛	9	0.5555555555555556	62	2	衛女思歸雖非禮而思	衛女思歸也適異國而
043 新臺-後漢-鄭玄	6	0.7272727272727273	2	1	宣公之世宣父	宣公之世子