TargetTitle	Length	ratio	Source place	Target place	Analysis text	Target text
046 牆有茨-唐-孔穎達	12	0.75	275	99	宣公夫人惠公之母也以言刺	宣公夫人惠公之母是其事也
047 君子偕老-前漢-毛	33	0.6666666666666666	1	0	君子偕老詩者刺衛夫人也以夫人淫亂失事君子之道也毛以為由夫人失事君子	君子偕老刺衛夫人也夫人淫亂失事君子之道故陳人君之德服飾之盛宜與君子
047 君子偕老-前漢-毛	8	0.625	34	17	之道故陳別有小君	之道故陳人君之德
047 君子偕老-前漢-毛	12	0.6956521739130435	50	25	服飾之盛德稱其服宜與君子	服飾之盛宜與君子偕老也
047 君子偕老-前漢-毛	6	0.8333333333333334	76	30	與君子偕老偕	與君子偕老也
047 君子偕老-前漢-毛	6	0.8333333333333334	128	30	與君子偕老者	與君子偕老也
047 君子偕老-前漢-毛	6	0.6666666666666666	140	0	君子偕老以為	君子偕老刺衛
047 君子偕老-前漢-毛	6	0.7272727272727273	140	31	君子偕老以為	君子偕老也
047 君子偕老-前漢-毛	6	0.8333333333333334	167	30	與君子偕老各	與君子偕老也
047 君子偕老-前漢-毛	24	0.723404255319149	186	13	失事君子之道故陳此夫人既有舉動之德服飾之盛宜應與	失事君子之道故陳人君之德服飾之盛宜與君子偕老也
047 君子偕老-前漢-毛	6	0.8333333333333334	225	30	與君子偕老故	與君子偕老也
047 君子偕老-前漢-毛	11	0.7272727272727273	234	21	人君之德謂宣姜服飾之盛	人君之德服飾之盛宜與君
047 君子偕老-前漢-毛	11	0.5454545454545454	325	6	夫人也夫人雖理得稱人君	夫人也夫人淫亂失事君子
046 牆有茨-後漢-鄭玄	6	0.6666666666666666	279	12	惠公之母也以	惠公之母生子
046 牆有茨-前漢-毛	7	1.0	259	9	公子頑通乎君母	公子頑通乎君母
047 君子偕老-後漢-鄭玄	21	0.6190476190476191	275	2	宣公夫人惠公之母也以言刺夫人故知人君為小君	宣公夫人惠公之母也人君小君也或者小字誤作人
047 君子偕老-後漢-鄭玄	8	1.0	352	16	或者小字誤作人耳	或者小字誤作人耳