TargetTitle	Length	ratio	Source place	Target place	Analysis text	Target text
068 揚之水-前漢-毛	6	0.6666666666666666	4	3	刺平王也君子	刺平王也不撫
062 伯兮-前漢-毛	6	0.6666666666666666	8	6	君子行役無期	君子行役為王
071 葛藟-前漢-毛	6	0.6666666666666666	4	4	刺平王也君子	刺平王也周室