TargetTitle	Length	ratio	Source place	Target place	Analysis text	Target text
068 揚之水-唐-孔穎達	21	0.5714285714285714	77	4	三章章首二句是也凶年饑饉室家相棄下四句是也	三章章首二句是也屯戍母家次二句是也思者不二
068 揚之水-唐-孔穎達	6	0.6666666666666666	169	6	章首二句先言	章首二句是也
004 樛木-唐-孔穎達	17	0.5294117647058824	77	51	三章章首二句是也凶年饑饉室家相棄下	三章章首二句是也既能逮下則樂其君子
004 樛木-唐-孔穎達	6	0.6666666666666666	169	53	章首二句先言	章首二句是也
044 二子乘舟-唐-孔穎達	6	0.6666666666666666	81	52	二句是也凶年	二句是也國人
069 中谷有蓷-前漢-毛	10	0.7	1	0	中穀有蓷詩者言閔周也	中穀有蓷閔周也夫婦日
069 中谷有蓷-前漢-毛	10	0.8421052631578947	35	13	凶年饑饉遂室家相離棄	凶年饑饉室家相棄爾
069 中谷有蓷-前漢-毛	6	1.0	71	7	夫婦日以衰薄	夫婦日以衰薄
069 中谷有蓷-前漢-毛	8	1.0	85	13	凶年饑饉室家相棄	凶年饑饉室家相棄